{
    "totalElements": 726,
    "totalPages": 146,
    "size": 5,
    "from": 0,
    "roomTypeList": [
        {
            "realestateId": 2341649782,
            "roomType": "아파트",
            "complexName": "한남더힐",
            "realEstateTypeName": "매매",
            "sidoName": "서울시",
            "guName": "용산구",
            "dongName": "한남동",
            "address": "서울시 용산구 한남동",
            "latitude": 37.535736,
            "longitude": 127.007565,
            "descriptionTagList": "['15년이내', '1층', '방두개', '화장실두개']",
            "dealOrWarrantPrc": "30억",
            "rentPrc": "0",
            "floorInfo": "1/6",
            "pyeong": 2,
            "supplyArea": 87.05,
            "exclusiveArea": 59.68,
            "maintenanceFee": 0,
            "color": "yellow",
            "imageSrc": "[{'imageOrder': 0, 'imageSrc': 'https://landthumb-phinf.pstatic.net/20171109_118/apt_realimage_1510217117636OhXya_JPEG/744e15d68618f3d155dac67f0b5e87e2.JPG'}, {'imageOrder': 1, 'imageSrc': 'https://landthumb-phinf.pstatic.net/20171109_157/apt_realimage_1510217118237BLqGP_JPEG/aa85a76d8d2cee8bfa8d70869f0fbf04.JPG'}, {'imageOrder': 2, 'imageSrc': 'https://landthumb-phinf.pstatic.net/20171109_165/apt_realimage_151021711688811W5V_JPEG/16929cea9223065a838912aa59c1893a.JPG'}, {'imageOrder': 3, 'imageSrc': 'https://landthumb-phinf.pstatic.net/20171109_70/apt_realimage_1510217116278EpEqU_JPEG/572ce10de560b90e69df336d563e2e1d.JPG'}, {'imageOrder': 4, 'imageSrc': 'https://landthumb-phinf.pstatic.net/20171109_171/apt_realimage_1510217115519fkGQA_JPEG/a5b76eeed49f09b3d384aa42be410f3d.JPG'}, {'imageOrder': 5, 'imageSrc': 'https://landthumb-phinf.pstatic.net/20171109_283/apt_realimage_1510217114774OsOIC_JPEG/93ed6cf1ca0ffb39e13cc3b2e688d431.JPG'}, {'imageOrder': 6, 'imageSrc': 'https://landthumb-phinf.pstatic.net/20171109_7/apt_realimage_15102171141932j6Pk_JPEG/9aeab7e327427a3bcfc872ec67734667.JPG'}, {'imageOrder': 7, 'imageSrc': 'https://landthumb-phinf.pstatic.net/20171109_187/apt_realimage_1510217113575jiCog_JPEG/0bd828129a8c37eb13c09d719e30cca6.JPG'}, {'imageOrder': 8, 'imageSrc': 'https://landthumb-phinf.pstatic.net/20171109_174/apt_realimage_1510217112821aerts_JPEG/4d368ac005130081b077df19186c90a5.JPG'}, {'imageOrder': 9, 'imageSrc': 'https://landthumb-phinf.pstatic.net/20171109_207/apt_realimage_1510217112205Sghol_JPEG/8f94d239d0299ac723c126b19d481b95.JPG'}, {'imageOrder': 10, 'imageSrc': 'https://landthumb-phinf.pstatic.net/20171109_224/apt_realimage_1510217111639qrYRa_JPEG/5a6556148dbd89ba8a697f75454d0555.JPG'}, {'imageOrder': 11, 'imageSrc': 'https://landthumb-phinf.pstatic.net/20171109_77/apt_realimage_1510217110983XGlxW_JPEG/0e42898d7ff6b5b490d75cebbba19f9b.JPG'}, {'imageOrder': 12, 'imageSrc': 'https://landthumb-phinf.pstatic.net/20171109_18/apt_realimage_1510217110324IcHfh_JPEG/5406a361a3f9f96310ca7ab5597a3cde.JPG'}, {'imageOrder': 13, 'imageSrc': 'https://landthumb-phinf.pstatic.net/20171109_89/apt_realimage_1510217109636DrMFH_JPEG/a00b08143e9a601cd10b1132c19155d5.JPG'}, {'imageOrder': 14, 'imageSrc': 'https://landthumb-phinf.pstatic.net/20171109_260/apt_realimage_1510217108826E7ggt_JPEG/9008db952bbae975a47cdc74e5bedf17.JPG'}, {'imageOrder': 15, 'imageSrc': 'https://landthumb-phinf.pstatic.net/20171109_137/apt_realimage_1510217108101Q5rlr_JPEG/9fa383b329d0d2f1956a5c9b1904b094.JPG'}, {'imageOrder': 16, 'imageSrc': 'https://landthumb-phinf.pstatic.net/20171109_108/apt_realimage_1510217107340XgXsW_JPEG/3db95354f1b2b9576fe539357382dc2d.JPG'}, {'imageOrder': 17, 'imageSrc': 'https://landthumb-phinf.pstatic.net/20171109_138/apt_realimage_1510217106246HEzU1_JPEG/0bd904a4e0ddf955615ad99275e4c4c9.JPG'}, {'imageOrder': 18, 'imageSrc': 'https://landthumb-phinf.pstatic.net/20171109_160/apt_realimage_1510217105382mJBJ0_JPEG/629d14a5c6a17cd41aedeac9beb6941c.JPG'}, {'imageOrder': 19, 'imageSrc': 'https://landthumb-phinf.pstatic.net/20171109_10/apt_realimage_1510217103978CU18R_JPEG/1765c6b20ac7bdb33228e0d689cfec43.JPG'}, {'imageOrder': 20, 'imageSrc': 'https://landthumb-phinf.pstatic.net/20171109_254/apt_realimage_1510217102620fw35b_JPEG/c743a51d78257abedf9a668d8dbae628.JPG'}, {'imageOrder': 21, 'imageSrc': 'https://landthumb-phinf.pstatic.net/20171109_262/apt_realimage_1510217101572m5pzg_JPEG/bc4842fbfcafb037fe79af458e2dec51.JPG'}]",
            "bookmark": {
                "login": true,
                "checked": false
            }
        },
        {
            "realestateId": 2341728429,
            "roomType": "아파트",
            "complexName": "파크타워(주상복합)",
            "realEstateTypeName": "매매",
            "sidoName": "서울시",
            "guName": "용산구",
            "dongName": "용산동5가",
            "address": "서울시 용산구 용산동5가",
            "latitude": 37.522987,
            "longitude": 126.973397,
            "descriptionTagList": "['15년이내', '역세권', '방세개', '화장실두개']",
            "dealOrWarrantPrc": "24억",
            "rentPrc": "0",
            "floorInfo": "7/34",
            "pyeong": 3,
            "supplyArea": 126.99,
            "exclusiveArea": 103.12,
            "maintenanceFee": 400000,
            "color": "yellow",
            "imageSrc": "[{'imageOrder': 0, 'imageSrc': 'https://landthumb-phinf.pstatic.net/20180119_104/apt_realimage_15163260382941sQA6_JPEG/789508500ba800daf3ddd2e8aec23416.JPG'}, {'imageOrder': 1, 'imageSrc': 'https://landthumb-phinf.pstatic.net/20180119_49/apt_realimage_1516326037616G8bPl_JPEG/1c80e3933b442a6e9c79f3fa0a3e5797.JPG'}, {'imageOrder': 2, 'imageSrc': 'https://landthumb-phinf.pstatic.net/20180119_132/apt_realimage_1516326036637ptD2B_JPEG/8199c8aebea94a0857bd4542f905313d.JPG'}, {'imageOrder': 3, 'imageSrc': 'https://landthumb-phinf.pstatic.net/20180119_72/apt_realimage_1516326035932w0zqq_JPEG/3d560b106ff8d198aab27c8dfef9646c.JPG'}, {'imageOrder': 4, 'imageSrc': 'https://landthumb-phinf.pstatic.net/20180119_155/apt_realimage_15163260352534pE0D_JPEG/91c68ee00dbc6ebcf59c019219171138.JPG'}, {'imageOrder': 5, 'imageSrc': 'https://landthumb-phinf.pstatic.net/20180119_180/apt_realimage_1516326034616XcQmA_JPEG/7edd43c2249e01ec659401e17348aab9.JPG'}, {'imageOrder': 6, 'imageSrc': 'https://landthumb-phinf.pstatic.net/20180119_125/apt_realimage_1516326034030J9Pxw_JPEG/3c27b0103feb025874fe3884a1bb6528.JPG'}, {'imageOrder': 7, 'imageSrc': 'https://landthumb-phinf.pstatic.net/20180119_84/apt_realimage_1516326033360N9Pb5_JPEG/b4a38c31881f646870318e894124a8ff.JPG'}, {'imageOrder': 8, 'imageSrc': 'https://landthumb-phinf.pstatic.net/20180119_149/apt_realimage_1516326032792cg7dS_JPEG/6fd51b84139428b28e63d38f76da5600.JPG'}, {'imageOrder': 9, 'imageSrc': 'https://landthumb-phinf.pstatic.net/20180119_207/apt_realimage_1516326032117qLOuV_JPEG/b224a6db6be75f847f8942e93ceedff1.JPG'}, {'imageOrder': 10, 'imageSrc': 'https://landthumb-phinf.pstatic.net/20180119_253/apt_realimage_1516326031482rzkCJ_JPEG/1cbf9ad8588a62de19a0a282e0a43097.JPG'}, {'imageOrder': 11, 'imageSrc': 'https://landthumb-phinf.pstatic.net/20180119_49/apt_realimage_1516326030900dLiNG_JPEG/6479aed6c2d17754bea7e83c2bbf8678.JPG'}, {'imageOrder': 12, 'imageSrc': 'https://landthumb-phinf.pstatic.net/20180119_35/apt_realimage_1516326030370yu7jf_JPEG/b14a5c44dd4afe052b450e287dae3015.JPG'}, {'imageOrder': 13, 'imageSrc': 'https://landthumb-phinf.pstatic.net/20180119_151/apt_realimage_15163260297397FtL4_JPEG/7bee5e72c370c2c54150bf23cba36f65.JPG'}, {'imageOrder': 14, 'imageSrc': 'https://landthumb-phinf.pstatic.net/20180119_281/apt_realimage_15163260291504eA1B_JPEG/c4b13e9880db86604c39dd589e6cc1a8.JPG'}, {'imageOrder': 15, 'imageSrc': 'https://landthumb-phinf.pstatic.net/20180119_51/apt_realimage_1516326028480khyQy_JPEG/6df4567c5a797f8951e4c097938d959a.JPG'}, {'imageOrder': 16, 'imageSrc': 'https://landthumb-phinf.pstatic.net/20180119_155/apt_realimage_1516326027783FuGc2_JPEG/03119a0bcbe5092e765633aab074f696.JPG'}, {'imageOrder': 17, 'imageSrc': 'https://landthumb-phinf.pstatic.net/20180119_227/apt_realimage_1516326027079UNkUu_JPEG/dc8b7148d678332b217726c2b60fd146.JPG'}, {'imageOrder': 18, 'imageSrc': 'https://landthumb-phinf.pstatic.net/20180119_76/apt_realimage_1516326026347l5zqW_JPEG/24c3d25257ec4a49789f603df9359cc5.JPG'}, {'imageOrder': 19, 'imageSrc': 'https://landthumb-phinf.pstatic.net/20180119_243/apt_realimage_1516326025678pL46o_JPEG/c5c27d84fc2e045b9c2724809e195bdb.JPG'}, {'imageOrder': 20, 'imageSrc': 'https://landthumb-phinf.pstatic.net/20180119_52/apt_realimage_1516326024888RU9Ps_JPEG/04ddf5f79115fea94541be1d3a960225.JPG'}, {'imageOrder': 21, 'imageSrc': 'https://landthumb-phinf.pstatic.net/20180119_195/apt_realimage_1516326024193t7Atr_JPEG/8d105e2670fcedc19ecf49486bc9207f.JPG'}]",
            "bookmark": {
                "login": true,
                "checked": false
            }
        },
        {
            "realestateId": 2341348730,
            "roomType": "아파트",
            "complexName": "파크타워(주상복합)",
            "realEstateTypeName": "매매",
            "sidoName": "서울시",
            "guName": "용산구",
            "dongName": "용산동5가",
            "address": "서울시 용산구 용산동5가",
            "latitude": 37.524024,
            "longitude": 126.971553,
            "descriptionTagList": "['15년이내', '역세권', '대형평수', '방세개']",
            "dealOrWarrantPrc": "30억",
            "rentPrc": "0",
            "floorInfo": "고/40",
            "pyeong": 4,
            "supplyArea": 156.83,
            "exclusiveArea": 123.42,
            "maintenanceFee": 0,
            "color": "yellow",
            "imageSrc": "[{'imageOrder': 0, 'imageSrc': 'https://landthumb-phinf.pstatic.net/20230926_36/land_naver_1695690591554u9Eus_JPEG/lg.jpg'}, {'imageOrder': 1, 'imageSrc': 'https://landthumb-phinf.pstatic.net/20230926_138/land_naver_1695690591548TfeBL_JPEG/lg.jpg'}, {'imageOrder': 2, 'imageSrc': 'https://landthumb-phinf.pstatic.net/20180119_104/apt_realimage_15163260382941sQA6_JPEG/789508500ba800daf3ddd2e8aec23416.JPG'}, {'imageOrder': 3, 'imageSrc': 'https://landthumb-phinf.pstatic.net/20180119_49/apt_realimage_1516326037616G8bPl_JPEG/1c80e3933b442a6e9c79f3fa0a3e5797.JPG'}, {'imageOrder': 4, 'imageSrc': 'https://landthumb-phinf.pstatic.net/20180119_132/apt_realimage_1516326036637ptD2B_JPEG/8199c8aebea94a0857bd4542f905313d.JPG'}, {'imageOrder': 5, 'imageSrc': 'https://landthumb-phinf.pstatic.net/20180119_72/apt_realimage_1516326035932w0zqq_JPEG/3d560b106ff8d198aab27c8dfef9646c.JPG'}, {'imageOrder': 6, 'imageSrc': 'https://landthumb-phinf.pstatic.net/20180119_155/apt_realimage_15163260352534pE0D_JPEG/91c68ee00dbc6ebcf59c019219171138.JPG'}, {'imageOrder': 7, 'imageSrc': 'https://landthumb-phinf.pstatic.net/20180119_180/apt_realimage_1516326034616XcQmA_JPEG/7edd43c2249e01ec659401e17348aab9.JPG'}, {'imageOrder': 8, 'imageSrc': 'https://landthumb-phinf.pstatic.net/20180119_125/apt_realimage_1516326034030J9Pxw_JPEG/3c27b0103feb025874fe3884a1bb6528.JPG'}, {'imageOrder': 9, 'imageSrc': 'https://landthumb-phinf.pstatic.net/20180119_84/apt_realimage_1516326033360N9Pb5_JPEG/b4a38c31881f646870318e894124a8ff.JPG'}, {'imageOrder': 10, 'imageSrc': 'https://landthumb-phinf.pstatic.net/20180119_149/apt_realimage_1516326032792cg7dS_JPEG/6fd51b84139428b28e63d38f76da5600.JPG'}, {'imageOrder': 11, 'imageSrc': 'https://landthumb-phinf.pstatic.net/20180119_207/apt_realimage_1516326032117qLOuV_JPEG/b224a6db6be75f847f8942e93ceedff1.JPG'}, {'imageOrder': 12, 'imageSrc': 'https://landthumb-phinf.pstatic.net/20180119_253/apt_realimage_1516326031482rzkCJ_JPEG/1cbf9ad8588a62de19a0a282e0a43097.JPG'}, {'imageOrder': 13, 'imageSrc': 'https://landthumb-phinf.pstatic.net/20180119_49/apt_realimage_1516326030900dLiNG_JPEG/6479aed6c2d17754bea7e83c2bbf8678.JPG'}, {'imageOrder': 14, 'imageSrc': 'https://landthumb-phinf.pstatic.net/20180119_35/apt_realimage_1516326030370yu7jf_JPEG/b14a5c44dd4afe052b450e287dae3015.JPG'}, {'imageOrder': 15, 'imageSrc': 'https://landthumb-phinf.pstatic.net/20180119_151/apt_realimage_15163260297397FtL4_JPEG/7bee5e72c370c2c54150bf23cba36f65.JPG'}, {'imageOrder': 16, 'imageSrc': 'https://landthumb-phinf.pstatic.net/20180119_281/apt_realimage_15163260291504eA1B_JPEG/c4b13e9880db86604c39dd589e6cc1a8.JPG'}, {'imageOrder': 17, 'imageSrc': 'https://landthumb-phinf.pstatic.net/20180119_51/apt_realimage_1516326028480khyQy_JPEG/6df4567c5a797f8951e4c097938d959a.JPG'}, {'imageOrder': 18, 'imageSrc': 'https://landthumb-phinf.pstatic.net/20180119_155/apt_realimage_1516326027783FuGc2_JPEG/03119a0bcbe5092e765633aab074f696.JPG'}, {'imageOrder': 19, 'imageSrc': 'https://landthumb-phinf.pstatic.net/20180119_227/apt_realimage_1516326027079UNkUu_JPEG/dc8b7148d678332b217726c2b60fd146.JPG'}, {'imageOrder': 20, 'imageSrc': 'https://landthumb-phinf.pstatic.net/20180119_76/apt_realimage_1516326026347l5zqW_JPEG/24c3d25257ec4a49789f603df9359cc5.JPG'}, {'imageOrder': 21, 'imageSrc': 'https://landthumb-phinf.pstatic.net/20180119_243/apt_realimage_1516326025678pL46o_JPEG/c5c27d84fc2e045b9c2724809e195bdb.JPG'}, {'imageOrder': 22, 'imageSrc': 'https://landthumb-phinf.pstatic.net/20180119_52/apt_realimage_1516326024888RU9Ps_JPEG/04ddf5f79115fea94541be1d3a960225.JPG'}, {'imageOrder': 23, 'imageSrc': 'https://landthumb-phinf.pstatic.net/20180119_195/apt_realimage_1516326024193t7Atr_JPEG/8d105e2670fcedc19ecf49486bc9207f.JPG'}]",
            "bookmark": {
                "login": true,
                "checked": false
            }
        },
        {
            "realestateId": 2341149027,
            "roomType": "아파트",
            "complexName": "파크타워(주상복합)",
            "realEstateTypeName": "매매",
            "sidoName": "서울시",
            "guName": "용산구",
            "dongName": "용산동5가",
            "address": "서울시 용산구 용산동5가",
            "latitude": 37.524923,
            "longitude": 126.970691,
            "descriptionTagList": "['15년이내', '역세권', '급매', '대형평수']",
            "dealOrWarrantPrc": "30억",
            "rentPrc": "0",
            "floorInfo": "중/40",
            "pyeong": 4,
            "supplyArea": 150.2,
            "exclusiveArea": 118.2,
            "maintenanceFee": 400000,
            "color": "yellow",
            "imageSrc": "[{'imageOrder': 0, 'imageSrc': 'https://landthumb-phinf.pstatic.net/20180119_104/apt_realimage_15163260382941sQA6_JPEG/789508500ba800daf3ddd2e8aec23416.JPG'}, {'imageOrder': 1, 'imageSrc': 'https://landthumb-phinf.pstatic.net/20180119_49/apt_realimage_1516326037616G8bPl_JPEG/1c80e3933b442a6e9c79f3fa0a3e5797.JPG'}, {'imageOrder': 2, 'imageSrc': 'https://landthumb-phinf.pstatic.net/20180119_132/apt_realimage_1516326036637ptD2B_JPEG/8199c8aebea94a0857bd4542f905313d.JPG'}, {'imageOrder': 3, 'imageSrc': 'https://landthumb-phinf.pstatic.net/20180119_72/apt_realimage_1516326035932w0zqq_JPEG/3d560b106ff8d198aab27c8dfef9646c.JPG'}, {'imageOrder': 4, 'imageSrc': 'https://landthumb-phinf.pstatic.net/20180119_155/apt_realimage_15163260352534pE0D_JPEG/91c68ee00dbc6ebcf59c019219171138.JPG'}, {'imageOrder': 5, 'imageSrc': 'https://landthumb-phinf.pstatic.net/20180119_180/apt_realimage_1516326034616XcQmA_JPEG/7edd43c2249e01ec659401e17348aab9.JPG'}, {'imageOrder': 6, 'imageSrc': 'https://landthumb-phinf.pstatic.net/20180119_125/apt_realimage_1516326034030J9Pxw_JPEG/3c27b0103feb025874fe3884a1bb6528.JPG'}, {'imageOrder': 7, 'imageSrc': 'https://landthumb-phinf.pstatic.net/20180119_84/apt_realimage_1516326033360N9Pb5_JPEG/b4a38c31881f646870318e894124a8ff.JPG'}, {'imageOrder': 8, 'imageSrc': 'https://landthumb-phinf.pstatic.net/20180119_149/apt_realimage_1516326032792cg7dS_JPEG/6fd51b84139428b28e63d38f76da5600.JPG'}, {'imageOrder': 9, 'imageSrc': 'https://landthumb-phinf.pstatic.net/20180119_207/apt_realimage_1516326032117qLOuV_JPEG/b224a6db6be75f847f8942e93ceedff1.JPG'}, {'imageOrder': 10, 'imageSrc': 'https://landthumb-phinf.pstatic.net/20180119_253/apt_realimage_1516326031482rzkCJ_JPEG/1cbf9ad8588a62de19a0a282e0a43097.JPG'}, {'imageOrder': 11, 'imageSrc': 'https://landthumb-phinf.pstatic.net/20180119_49/apt_realimage_1516326030900dLiNG_JPEG/6479aed6c2d17754bea7e83c2bbf8678.JPG'}, {'imageOrder': 12, 'imageSrc': 'https://landthumb-phinf.pstatic.net/20180119_35/apt_realimage_1516326030370yu7jf_JPEG/b14a5c44dd4afe052b450e287dae3015.JPG'}, {'imageOrder': 13, 'imageSrc': 'https://landthumb-phinf.pstatic.net/20180119_151/apt_realimage_15163260297397FtL4_JPEG/7bee5e72c370c2c54150bf23cba36f65.JPG'}, {'imageOrder': 14, 'imageSrc': 'https://landthumb-phinf.pstatic.net/20180119_281/apt_realimage_15163260291504eA1B_JPEG/c4b13e9880db86604c39dd589e6cc1a8.JPG'}, {'imageOrder': 15, 'imageSrc': 'https://landthumb-phinf.pstatic.net/20180119_51/apt_realimage_1516326028480khyQy_JPEG/6df4567c5a797f8951e4c097938d959a.JPG'}, {'imageOrder': 16, 'imageSrc': 'https://landthumb-phinf.pstatic.net/20180119_155/apt_realimage_1516326027783FuGc2_JPEG/03119a0bcbe5092e765633aab074f696.JPG'}, {'imageOrder': 17, 'imageSrc': 'https://landthumb-phinf.pstatic.net/20180119_227/apt_realimage_1516326027079UNkUu_JPEG/dc8b7148d678332b217726c2b60fd146.JPG'}, {'imageOrder': 18, 'imageSrc': 'https://landthumb-phinf.pstatic.net/20180119_76/apt_realimage_1516326026347l5zqW_JPEG/24c3d25257ec4a49789f603df9359cc5.JPG'}, {'imageOrder': 19, 'imageSrc': 'https://landthumb-phinf.pstatic.net/20180119_243/apt_realimage_1516326025678pL46o_JPEG/c5c27d84fc2e045b9c2724809e195bdb.JPG'}, {'imageOrder': 20, 'imageSrc': 'https://landthumb-phinf.pstatic.net/20180119_52/apt_realimage_1516326024888RU9Ps_JPEG/04ddf5f79115fea94541be1d3a960225.JPG'}, {'imageOrder': 21, 'imageSrc': 'https://landthumb-phinf.pstatic.net/20180119_195/apt_realimage_1516326024193t7Atr_JPEG/8d105e2670fcedc19ecf49486bc9207f.JPG'}]",
            "bookmark": {
                "login": true,
                "checked": false
            }
        },
        {
            "realestateId": 2340962708,
            "roomType": "아파트",
            "complexName": "파크타워(주상복합)",
            "realEstateTypeName": "매매",
            "sidoName": "서울시",
            "guName": "용산구",
            "dongName": "용산동5가",
            "address": "서울시 용산구 용산동5가",
            "latitude": 37.52419,
            "longitude": 126.970293,
            "descriptionTagList": "['15년이내', '역세권', '급매', '대형평수']",
            "dealOrWarrantPrc": "30억",
            "rentPrc": "0",
            "floorInfo": "저/40",
            "pyeong": 4,
            "supplyArea": 158.59,
            "exclusiveArea": 124.8,
            "maintenanceFee": 500000,
            "color": "yellow",
            "imageSrc": "[{'imageOrder': 0, 'imageSrc': 'https://landthumb-phinf.pstatic.net/20230922_191/land_naver_1695369382339S8AjV_JPEG/1690425685763588.jpg'}, {'imageOrder': 1, 'imageSrc': 'https://landthumb-phinf.pstatic.net/20230922_88/land_naver_1695369382340qYP8A_JPEG/1690425685963679.jpg'}, {'imageOrder': 2, 'imageSrc': 'https://landthumb-phinf.pstatic.net/20230922_26/land_naver_1695369382339f2djr_JPEG/1690425686158583.jpg'}, {'imageOrder': 3, 'imageSrc': 'https://landthumb-phinf.pstatic.net/20230922_270/land_naver_1695369382339L5rKL_JPEG/1690425686367748.jpg'}, {'imageOrder': 4, 'imageSrc': 'https://landthumb-phinf.pstatic.net/20230922_198/land_naver_1695369382340jFTLq_JPEG/1690425686557149.jpg'}, {'imageOrder': 5, 'imageSrc': 'https://landthumb-phinf.pstatic.net/20230922_103/land_naver_1695369382339f9sRT_JPEG/1690425686745044.jpg'}, {'imageOrder': 6, 'imageSrc': 'https://landthumb-phinf.pstatic.net/20230922_256/land_naver_1695369382338lloWE_JPEG/1690425686890724.jpg'}, {'imageOrder': 7, 'imageSrc': 'https://landthumb-phinf.pstatic.net/20230922_79/land_naver_1695369382339BOITI_JPEG/1690425687031625.jpg'}, {'imageOrder': 8, 'imageSrc': 'https://landthumb-phinf.pstatic.net/20180119_104/apt_realimage_15163260382941sQA6_JPEG/789508500ba800daf3ddd2e8aec23416.JPG'}, {'imageOrder': 9, 'imageSrc': 'https://landthumb-phinf.pstatic.net/20180119_49/apt_realimage_1516326037616G8bPl_JPEG/1c80e3933b442a6e9c79f3fa0a3e5797.JPG'}, {'imageOrder': 10, 'imageSrc': 'https://landthumb-phinf.pstatic.net/20180119_132/apt_realimage_1516326036637ptD2B_JPEG/8199c8aebea94a0857bd4542f905313d.JPG'}, {'imageOrder': 11, 'imageSrc': 'https://landthumb-phinf.pstatic.net/20180119_72/apt_realimage_1516326035932w0zqq_JPEG/3d560b106ff8d198aab27c8dfef9646c.JPG'}, {'imageOrder': 12, 'imageSrc': 'https://landthumb-phinf.pstatic.net/20180119_155/apt_realimage_15163260352534pE0D_JPEG/91c68ee00dbc6ebcf59c019219171138.JPG'}, {'imageOrder': 13, 'imageSrc': 'https://landthumb-phinf.pstatic.net/20180119_180/apt_realimage_1516326034616XcQmA_JPEG/7edd43c2249e01ec659401e17348aab9.JPG'}, {'imageOrder': 14, 'imageSrc': 'https://landthumb-phinf.pstatic.net/20180119_125/apt_realimage_1516326034030J9Pxw_JPEG/3c27b0103feb025874fe3884a1bb6528.JPG'}, {'imageOrder': 15, 'imageSrc': 'https://landthumb-phinf.pstatic.net/20180119_84/apt_realimage_1516326033360N9Pb5_JPEG/b4a38c31881f646870318e894124a8ff.JPG'}, {'imageOrder': 16, 'imageSrc': 'https://landthumb-phinf.pstatic.net/20180119_149/apt_realimage_1516326032792cg7dS_JPEG/6fd51b84139428b28e63d38f76da5600.JPG'}, {'imageOrder': 17, 'imageSrc': 'https://landthumb-phinf.pstatic.net/20180119_207/apt_realimage_1516326032117qLOuV_JPEG/b224a6db6be75f847f8942e93ceedff1.JPG'}, {'imageOrder': 18, 'imageSrc': 'https://landthumb-phinf.pstatic.net/20180119_253/apt_realimage_1516326031482rzkCJ_JPEG/1cbf9ad8588a62de19a0a282e0a43097.JPG'}, {'imageOrder': 19, 'imageSrc': 'https://landthumb-phinf.pstatic.net/20180119_49/apt_realimage_1516326030900dLiNG_JPEG/6479aed6c2d17754bea7e83c2bbf8678.JPG'}, {'imageOrder': 20, 'imageSrc': 'https://landthumb-phinf.pstatic.net/20180119_35/apt_realimage_1516326030370yu7jf_JPEG/b14a5c44dd4afe052b450e287dae3015.JPG'}, {'imageOrder': 21, 'imageSrc': 'https://landthumb-phinf.pstatic.net/20180119_151/apt_realimage_15163260297397FtL4_JPEG/7bee5e72c370c2c54150bf23cba36f65.JPG'}, {'imageOrder': 22, 'imageSrc': 'https://landthumb-phinf.pstatic.net/20180119_281/apt_realimage_15163260291504eA1B_JPEG/c4b13e9880db86604c39dd589e6cc1a8.JPG'}, {'imageOrder': 23, 'imageSrc': 'https://landthumb-phinf.pstatic.net/20180119_51/apt_realimage_1516326028480khyQy_JPEG/6df4567c5a797f8951e4c097938d959a.JPG'}, {'imageOrder': 24, 'imageSrc': 'https://landthumb-phinf.pstatic.net/20180119_155/apt_realimage_1516326027783FuGc2_JPEG/03119a0bcbe5092e765633aab074f696.JPG'}, {'imageOrder': 25, 'imageSrc': 'https://landthumb-phinf.pstatic.net/20180119_227/apt_realimage_1516326027079UNkUu_JPEG/dc8b7148d678332b217726c2b60fd146.JPG'}, {'imageOrder': 26, 'imageSrc': 'https://landthumb-phinf.pstatic.net/20180119_76/apt_realimage_1516326026347l5zqW_JPEG/24c3d25257ec4a49789f603df9359cc5.JPG'}, {'imageOrder': 27, 'imageSrc': 'https://landthumb-phinf.pstatic.net/20180119_243/apt_realimage_1516326025678pL46o_JPEG/c5c27d84fc2e045b9c2724809e195bdb.JPG'}, {'imageOrder': 28, 'imageSrc': 'https://landthumb-phinf.pstatic.net/20180119_52/apt_realimage_1516326024888RU9Ps_JPEG/04ddf5f79115fea94541be1d3a960225.JPG'}, {'imageOrder': 29, 'imageSrc': 'https://landthumb-phinf.pstatic.net/20180119_195/apt_realimage_1516326024193t7Atr_JPEG/8d105e2670fcedc19ecf49486bc9207f.JPG'}]",
            "bookmark": {
                "login": true,
                "checked": false
            }
        }
    ]
}